*** Darwin 8x8 ***
Turn = 0.
  01234567
0 r.......
1 ........
2 .ff.....
3 ....h...
4 ........
5 ........
6 ........
7 .......t

Turn = 5.
  01234567
0 ...r.r..
1 ........
2 .ff.....
3 ........
4 ........
5 ........
6 ........
7 .......t

Turn = 10.
  01234567
0 .......r
1 ........
2 .ff....r
3 ........
4 ........
5 ........
6 ........
7 .......t

Turn = 15.
  01234567
0 ........
1 ........
2 .ff.....
3 ........
4 .......r
5 ........
6 .......r
7 .......r

Turn = 20.
  01234567
0 ........
1 ........
2 .ff.....
3 ........
4 ........
5 ....r...
6 .....r..
7 ....r...

Turn = 25.
  01234567
0 ........
1 ........
2 .ff.....
3 ........
4 ........
5 r.......
6 r.......
7 r.......

Turn = 30.
  01234567
0 ........
1 ........
2 .ff.....
3 ........
4 r.......
5 ........
6 ...r....
7 ..r.....

*** Darwin 4x9 ***
Turn = 0.
  012345678
0 h........
1 .f.......
2 ..r......
3 ..hh..t..

Turn = 1.
  012345678
0 h........
1 .f.......
2 ..r......
3 ..rr..t..

Turn = 2.
  012345678
0 h........
1 .f.......
2 ..rr.....
3 ..r...t..

Turn = 3.
  012345678
0 h........
1 .f.r.....
2 ..r......
3 ..r...t..

Turn = 4.
  012345678
0 h..r.....
1 .f.......
2 ..r......
3 .r....t..

Turn = 5.
  012345678
0 h..r.....
1 .f.......
2 .r.......
3 r.....t..

*** Darwin 9x9 ***
Turn = 0.
  012345678
0 f........
1 .f.......
2 .........
3 .........
4 .........
5 .....r...
6 .........
7 .........
8 ...r....h

Turn = 1.
  012345678
0 f........
1 .f.......
2 .........
3 .........
4 .........
5 .........
6 .....r...
7 ...r.....
8 ........h

Turn = 2.
  012345678
0 f........
1 .f.......
2 .........
3 .........
4 .........
5 .........
6 ...r.....
7 .....r...
8 ........h

Turn = 3.
  012345678
0 f........
1 .f.......
2 .........
3 .........
4 .........
5 ...r.....
6 .........
7 .........
8 .....r..h

*** Darwin 6x7 ***
Turn = 0.
  0123456
0 .......
1 .h.....
2 .h.....
3 ...ff..
4 .......
5 .......

Turn = 2.
  0123456
0 .h.....
1 h......
2 .......
3 ...ff..
4 .......
5 .......

Turn = 4.
  0123456
0 .h.....
1 h......
2 .......
3 ...ff..
4 .......
5 .......

Turn = 6.
  0123456
0 .h.....
1 h......
2 .......
3 ...ff..
4 .......
5 .......

Turn = 8.
  0123456
0 .h.....
1 h......
2 .......
3 ...ff..
4 .......
5 .......

Turn = 10.
  0123456
0 .h.....
1 h......
2 .......
3 ...ff..
4 .......
5 .......

*** Darwin 4x2 ***
Turn = 0.
  01
0 ..
1 .h
2 .h
3 .h

Turn = 3.
  01
0 .h
1 ..
2 h.
3 .h

Turn = 6.
  01
0 .h
1 ..
2 h.
3 .h

Turn = 9.
  01
0 .h
1 ..
2 h.
3 .h

*** Darwin 5x5 ***
Turn = 0.
  01234
0 h....
1 .t...
2 .rr..
3 ...r.
4 ..h.f

Turn = 10.
  01234
0 rr..r
1 ..rrr
2 .....
3 .....
4 h....

Turn = 20.
  01234
0 ..rr.
1 r..r.
2 r....
3 ...r.
4 ....r

*** Darwin 10x11 ***
Turn = 0.
  01234567890
0 r..........
1 ...........
2 ...........
3 ...........
4 ....fh.f...
5 ...........
6 ...........
7 ...........
8 ...........
9 .........rt

Turn = 9.
  01234567890
0 .........r.
1 ...........
2 .........rr
3 ....r......
4 ....f..f...
5 ...........
6 ...........
7 ...........
8 ...........
9 ...........

Turn = 18.
  01234567890
0 r..rr......
1 ...r.......
2 ...........
3 ...........
4 .......f...
5 ...........
6 ...........
7 ...........
8 ...........
9 .....r.....

*** Darwin 10x10 ***
Turn = 0.
  0123456789
0 h.........
1 .rt.......
2 .ff.......
3 ..........
4 ..........
5 ..........
6 ..........
7 ..........
8 ..........
9 ..........

Turn = 1.
  0123456789
0 .h........
1 .tt.......
2 ..f.......
3 .r........
4 ..........
5 ..........
6 ..........
7 ..........
8 ..........
9 ..........

Turn = 2.
  0123456789
0 ..h.......
1 .tt.......
2 ..f.......
3 ..........
4 .r........
5 ..........
6 ..........
7 ..........
8 ..........
9 ..........

Turn = 3.
  0123456789
0 ...h......
1 .tt.......
2 ..t.......
3 ..........
4 ..........
5 .r........
6 ..........
7 ..........
8 ..........
9 ..........

Turn = 4.
  0123456789
0 ....h.....
1 .tt.......
2 ..t.......
3 ..........
4 ..........
5 ..........
6 .r........
7 ..........
8 ..........
9 ..........

*** Darwin 12x12 ***
Turn = 0.
  012345678901
0 ............
1 ............
2 ............
3 ............
4 ............
5 ............
6 .........h..
7 ...r........
8 ....t.......
9 .........r..
0 ............
1 ...........r

Turn = 1.
  012345678901
0 ............
1 ............
2 ............
3 ............
4 ............
5 .........h..
6 ............
7 ............
8 ...rt.......
9 ............
0 .........r.r
1 ............

Turn = 2.
  012345678901
0 ............
1 ............
2 ............
3 ............
4 .........h..
5 ............
6 ............
7 ............
8 ....t.......
9 ...r.......r
0 ............
1 .........r..

Turn = 3.
  012345678901
0 ............
1 ............
2 ............
3 .........h..
4 ............
5 ............
6 ............
7 ............
8 ....t......r
9 ............
0 ...r........
1 .........r..

Turn = 4.
  012345678901
0 ............
1 ............
2 .........h..
3 ............
4 ............
5 ............
6 ............
7 ...........r
8 ....t.......
9 ............
0 ............
1 ...r....r...

*** Darwin 6x9 ***
Turn = 0.
  012345678
0 r........
1 .hh......
2 .fh.h....
3 ...rf....
4 .........
5 .....ff..

Turn = 5.
  012345678
0 .....r...
1 .rr.r....
2 .frr.....
3 ...r.....
4 .........
5 .....ff..

Turn = 10.
  012345678
0 ...r....r
1 r........
2 ....r.r..
3 ........r
4 .r.......
5 ..r..ff..

Turn = 15.
  012345678
0 .........
1 r.....r..
2 .........
3 .....r...
4 r.r.....r
5 r...rrf..

*** Darwin 11x19 ***
Turn = 0.
  0123456789012345678
0 r...f..............
1 tr.................
2 ..f................
3 .ttt...............
4 ....f....r.........
5 ...................
6 ...................
7 ...................
8 ...................
9 ...................
0 ...................

Turn = 13.
  0123456789012345678
0 ........r..........
1 ...................
2 ..tt...............
3 .tttt..............
4 ....t..............
5 ...................
6 ...................
7 ...................
8 r..................
9 ...................
0 ...............r...

*** Darwin 14x14 ***
Turn = 0.
  01234567890123
0 .r............
1 ..r...........
2 ...t..........
3 ....f.........
4 .....h........
5 ......h.......
6 .......h......
7 ........t.....
8 .........h....
9 ..........r...
0 ...........r..
1 ............t.
2 .............t
3 .............t

Turn = 1.
  01234567890123
0 .r............
1 ...r..........
2 ...t..........
3 ....f.........
4 ......h.......
5 .....h........
6 ........h.....
7 ........t.....
8 ..........h...
9 .........r....
0 ..........r...
1 ............t.
2 .............t
3 .............t

Turn = 2.
  01234567890123
0 ..r...........
1 ....r.........
2 ...t..........
3 ....f.h.......
4 ..............
5 ..............
6 .....h...h....
7 ........t.....
8 ...........h..
9 ........r.....
0 .........r....
1 ............t.
2 .............t
3 .............t

Turn = 3.
  01234567890123
0 ...r..........
1 .....r........
2 ...t..h.......
3 ....f.........
4 ..............
5 ..............
6 ..........h...
7 .....h..t.....
8 ............h.
9 .......r......
0 ........r.....
1 ............t.
2 .............t
3 .............t

*** Darwin 10x19 ***
Turn = 0.
  0123456789012345678
0 t..................
1 .hhr..........h....
2 ...................
3 ...................
4 ...................
5 .....f.............
6 ...................
7 .......f...........
8 .t......h..........
9 ...................

Turn = 2.
  0123456789012345678
0 t.hr...............
1 ................h..
2 ...................
3 .h.................
4 ...................
5 .....f.............
6 ........h..........
7 .......f...........
8 .t.................
9 ...................

Turn = 4.
  0123456789012345678
0 t.h..r.............
1 ..................h
2 ...................
3 ...................
4 ........h..........
5 .h...f.............
6 ...................
7 .......f...........
8 .t.................
9 ...................

Turn = 6.
  0123456789012345678
0 t.h....r...........
1 ..................h
2 ........h..........
3 ...................
4 ...................
5 .....f.............
6 ...................
7 .h.....f...........
8 .t.................
9 ...................

Turn = 8.
  0123456789012345678
0 t.h.....hr.........
1 ..................h
2 ...................
3 ...................
4 ...................
5 .....f.............
6 ...................
7 .h.....f...........
8 .t.................
9 ...................

Turn = 10.
  0123456789012345678
0 t.h.....h..r.......
1 ..................h
2 ...................
3 ...................
4 ...................
5 .....f.............
6 ...................
7 .t.....f...........
8 .t.................
9 ...................

*** Darwin 18x18 ***
Turn = 0.
  012345678901234567
0 ..................
1 ..h...............
2 ..................
3 ....t.............
4 ....t.............
5 ..................
6 ......h...........
7 ..................
8 ..................
9 ..................
0 .r........h.......
1 ...........f......
2 ..................
3 ..................
4 ..................
5 ...............r..
6 ......r.........f.
7 .................r

Turn = 9.
  012345678901234567
0 ......h...........
1 .r........h.......
2 ..................
3 ....t.............
4 ....t.............
5 ..................
6 ..................
7 ......r...........
8 ..................
9 .................r
0 ..h...............
1 ...........f......
2 ..................
3 ..................
4 ..................
5 ..................
6 ................f.
7 .........r........

Turn = 18.
  012345678901234567
0 ........r.h......r
1 .....r..r.........
2 ..................
3 ....t.............
4 ....t.............
5 ..................
6 ..................
7 ..................
8 ..................
9 ..................
0 ..................
1 ...........f......
2 ..................
3 ..................
4 ..................
5 ..................
6 ................f.
7 ..rr..............

*** Darwin 12x12 ***
Turn = 0.
  012345678901
0 ............
1 ............
2 ............
3 ............
4 ..h.........
5 .h..........
6 ............
7 ..h....f....
8 .......ht...
9 .........tr.
0 ............
1 ...........h

Turn = 8.
  012345678901
0 ............
1 ............
2 ............
3 ............
4 ..........h.
5 .........h..
6 ............
7 ......tt....
8 .......tt...
9 .........tt.
0 ............
1 ...........h

Turn = 16.
  012345678901
0 ............
1 ............
2 ............
3 ............
4 ...........h
5 ...........h
6 ............
7 ......tt....
8 .......tt...
9 .........tt.
0 ............
1 ...........h

*** Darwin 15x10 ***
Turn = 0.
  0123456789
0 h.........
1 ..........
2 ..........
3 ..........
4 ..........
5 ..........
6 ..........
7 ..........
8 ........f.
9 .ff.....ht
0 .h........
1 .h........
2 ..........
3 ..........
4 ..........

Turn = 1.
  0123456789
0 h.........
1 ..........
2 ..........
3 ..........
4 ..........
5 ..........
6 ..........
7 ..........
8 ........f.
9 .ff....h.t
0 h.........
1 h.........
2 ..........
3 ..........
4 ..........

Turn = 2.
  0123456789
0 h.........
1 ..........
2 ..........
3 ..........
4 ..........
5 ..........
6 ..........
7 ..........
8 ........f.
9 .ff...h..t
0 h.........
1 h.........
2 ..........
3 ..........
4 ..........

Turn = 3.
  0123456789
0 h.........
1 ..........
2 ..........
3 ..........
4 ..........
5 ..........
6 ..........
7 ..........
8 ........f.
9 .ff..h...t
0 h.........
1 h.........
2 ..........
3 ..........
4 ..........

Turn = 4.
  0123456789
0 h.........
1 ..........
2 ..........
3 ..........
4 ..........
5 ..........
6 ..........
7 ..........
8 ........f.
9 .ff.h....t
0 h.........
1 h.........
2 ..........
3 ..........
4 ..........

*** Darwin 14x14 ***
Turn = 0.
  01234567890123
0 f.............
1 .f............
2 ..r...........
3 ...r..........
4 ..............
5 ..............
6 ..............
7 ..............
8 ..............
9 ..............
0 ..............
1 ...........t..
2 ..............
3 ..............

Turn = 3.
  01234567890123
0 f..r..........
1 .f............
2 r.............
3 ..............
4 ..............
5 ..............
6 ..............
7 ..............
8 ..............
9 ..............
0 ..............
1 ...........t..
2 ..............
3 ..............

Turn = 6.
  01234567890123
0 rr............
1 rf............
2 ..............
3 ..............
4 ..............
5 ..............
6 ..............
7 ..............
8 ..............
9 ..............
0 ..............
1 ...........t..
2 ..............
3 ..............

*** Darwin 14x7 ***
Turn = 0.
  0123456
0 .......
1 .r.....
2 ..r....
3 ...t...
4 ....h..
5 .....h.
6 .......
7 .......
8 .......
9 .......
0 .......
1 .......
2 .......
3 .......

Turn = 10.
  0123456
0 ......r
1 .......
2 .......
3 ...t...
4 ...t...
5 ...t...
6 .......
7 .......
8 .......
9 r......
0 .......
1 .......
2 .......
3 .......

Turn = 20.
  0123456
0 .......
1 .......
2 .......
3 ...t...
4 ...t...
5 ...t...
6 .......
7 .......
8 .......
9 r.....r
0 .......
1 .......
2 .......
3 .......

*** Darwin 5x5 ***
Turn = 0.
  01234
0 f....
1 .f...
2 ..h..
3 .....
4 .....

Turn = 2.
  01234
0 f.h..
1 .f...
2 .....
3 .....
4 .....

Turn = 4.
  01234
0 f.h..
1 .f...
2 .....
3 .....
4 .....

Turn = 6.
  01234
0 f.h..
1 .f...
2 .....
3 .....
4 .....

Turn = 8.
  01234
0 f.h..
1 .f...
2 .....
3 .....
4 .....

Turn = 10.
  01234
0 f.h..
1 .f...
2 .....
3 .....
4 .....

Turn = 12.
  01234
0 f.h..
1 .f...
2 .....
3 .....
4 .....

Turn = 14.
  01234
0 f.h..
1 .f...
2 .....
3 .....
4 .....

Turn = 16.
  01234
0 f.h..
1 .f...
2 .....
3 .....
4 .....

Turn = 18.
  01234
0 f.h..
1 .f...
2 .....
3 .....
4 .....

Turn = 20.
  01234
0 f.h..
1 .f...
2 .....
3 .....
4 .....

*** Darwin 6x7 ***
Turn = 0.
  0123456
0 .......
1 .h.....
2 .......
3 .h.....
4 .h.....
5 .......

Turn = 1.
  0123456
0 .......
1 ..h....
2 .h.....
3 .h.....
4 .......
5 .......

Turn = 2.
  0123456
0 .......
1 .h.h...
2 .h.....
3 .......
4 .......
5 .......

Turn = 3.
  0123456
0 .h.....
1 .h..h..
2 .......
3 .......
4 .......
5 .......

Turn = 4.
  0123456
0 .h.....
1 .h...h.
2 .......
3 .......
4 .......
5 .......

Turn = 5.
  0123456
0 .h.....
1 .h....h
2 .......
3 .......
4 .......
5 .......

Turn = 6.
  0123456
0 .h.....
1 .h....h
2 .......
3 .......
4 .......
5 .......

Turn = 7.
  0123456
0 .h.....
1 .h....h
2 .......
3 .......
4 .......
5 .......

Turn = 8.
  0123456
0 .h.....
1 .h....h
2 .......
3 .......
4 .......
5 .......

Turn = 9.
  0123456
0 .h.....
1 .h....h
2 .......
3 .......
4 .......
5 .......

Turn = 10.
  0123456
0 .h.....
1 .h....h
2 .......
3 .......
4 .......
5 .......
