*** Darwin 8x7 ***
Turn = 0.
  0123456
0 .....f.
1 f......
2 ...t...
3 ..f....
4 ......t
5 ...t...
6 ....f..
7 .......

Turn = 1.
  0123456
0 .....f.
1 f......
2 ...t...
3 ..f....
4 ......t
5 ...t...
6 ....f..
7 .......

Turn = 2.
  0123456
0 .....f.
1 f......
2 ...t...
3 ..f....
4 ......t
5 ...t...
6 ....f..
7 .......

Turn = 3.
  0123456
0 .....f.
1 f......
2 ...t...
3 ..f....
4 ......t
5 ...t...
6 ....f..
7 .......

Turn = 4.
  0123456
0 .....f.
1 f......
2 ...t...
3 ..f....
4 ......t
5 ...t...
6 ....f..
7 .......

Turn = 5.
  0123456
0 .....f.
1 f......
2 ...t...
3 ..f....
4 ......t
5 ...t...
6 ....f..
7 .......

*** Darwin 8x9 ***
Turn = 0.
  012345678
0 ...t.....
1 ...f.....
2 r......r.
3 ...f.....
4 ...r.....
5 r.h......
6 .........
7 .........

Turn = 4.
  012345678
0 r..t.....
1 ...t.....
2 .........
3 ...f.....
4 ........r
5 ....h....
6 .........
7 r..r.....

*** Darwin 6x7 ***
Turn = 0.
  0123456
0 .......
1 ....rh.
2 ..r....
3 .......
4 .......
5 t.....r

Turn = 4.
  0123456
0 .......
1 r......
2 .......
3 .......
4 .......
5 t.rr.h.

*** Darwin 10x7 ***
Turn = 0.
  0123456
0 .......
1 .......
2 ..r....
3 .......
4 .......
5 .......
6 ..r.h.f
7 .r.tr..
8 .......
9 .......

Turn = 3.
  0123456
0 .......
1 .......
2 .....r.
3 ..r.h..
4 ....r..
5 .......
6 ......f
7 ..tt...
8 .......
9 .......

*** Darwin 6x10 ***
Turn = 0.
  0123456789
0 ........r.
1 ..........
2 ...f......
3 ...t..t...
4 ....t....f
5 .t.......h

Turn = 1.
  0123456789
0 ..........
1 ........r.
2 ...t......
3 ...t..t...
4 ....t....f
5 .t.......h

Turn = 2.
  0123456789
0 ..........
1 ..........
2 ...t....r.
3 ...t..t...
4 ....t....f
5 .t.......h

Turn = 3.
  0123456789
0 ..........
1 ..........
2 ...t......
3 ...t..t.r.
4 ....t....f
5 .t.......h

Turn = 4.
  0123456789
0 ..........
1 ..........
2 ...t......
3 ...t..t...
4 ....t...rf
5 .t.......h

Turn = 5.
  0123456789
0 ..........
1 ..........
2 ...t......
3 ...t..t...
4 ....t....f
5 .t......rh

*** Darwin 9x9 ***
Turn = 0.
  012345678
0 ...ht....
1 ....h....
2 ...t.t...
3 .........
4 .........
5 .........
6 .r.......
7 .........
8 fh.......

Turn = 2.
  012345678
0 ...ht....
1 ....t....
2 ...t.t...
3 .........
4 .r.......
5 .........
6 .h.......
7 .........
8 f........

Turn = 4.
  012345678
0 ...ht....
1 ....t....
2 .r.t.t...
3 .........
4 .h.......
5 .........
6 .........
7 .........
8 f........

*** Darwin 7x8 ***
Turn = 0.
  01234567
0 ...h.f..
1 ........
2 ........
3 ......r.
4 r.....f.
5 .h......
6 .f.....f

Turn = 3.
  01234567
0 ....hf..
1 ........
2 .h......
3 ........
4 ........
5 ......rr
6 rf.....f

*** Darwin 10x9 ***
Turn = 0.
  012345678
0 ..t......
1 .........
2 .........
3 ...h.....
4 ..t......
5 h........
6 .........
7 .........
8 .........
9 .....f...

Turn = 2.
  012345678
0 ..t......
1 .........
2 .........
3 .....h...
4 ..t......
5 .........
6 .........
7 h........
8 .........
9 .....f...

Turn = 4.
  012345678
0 ..t......
1 .........
2 .........
3 .......h.
4 ..t......
5 .........
6 .........
7 .........
8 .........
9 h....f...

*** Darwin 8x5 ***
Turn = 0.
  01234
0 t.r..
1 .....
2 rf...
3 h...h
4 .....
5 .....
6 .....
7 .f...

Turn = 4.
  01234
0 r....
1 r....
2 .f...
3 .....
4 ..r..
5 .....
6 .....
7 hf..h

*** Darwin 9x6 ***
Turn = 0.
  012345
0 r.....
1 .....r
2 h.....
3 ...f..
4 ......
5 ....f.
6 .t....
7 .....f
8 f....h

Turn = 4.
  012345
0 r.....
1 .....r
2 ......
3 ...f..
4 ......
5 ....f.
6 ht....
7 .....f
8 fh....

*** Darwin 10x6 ***
Turn = 0.
  012345
0 ......
1 ....f.
2 ...ff.
3 ......
4 .....f
5 r.....
6 h.....
7 ...h..
8 ....t.
9 .....h

Turn = 3.
  012345
0 ......
1 ....f.
2 ...ff.
3 ......
4 .....f
5 .r....
6 ..r...
7 h.....
8 ....t.
9 .....h

*** Darwin 9x7 ***
Turn = 0.
  0123456
0 .....h.
1 r...r..
2 t.....t
3 .......
4 ..r....
5 .......
6 .....h.
7 .......
8 .......

Turn = 1.
  0123456
0 r...r..
1 .....h.
2 t.....t
3 .......
4 .......
5 ..r....
6 ......h
7 .......
8 .......

Turn = 2.
  0123456
0 r...r..
1 .......
2 t....ht
3 .......
4 .......
5 .......
6 ..r...h
7 .......
8 .......

Turn = 3.
  0123456
0 .r.r...
1 .......
2 t.....t
3 .....h.
4 .......
5 .......
6 ......h
7 ..r....
8 .......

Turn = 4.
  0123456
0 ..rr...
1 .......
2 t.....t
3 .......
4 .....h.
5 .......
6 ......h
7 .......
8 ..r....

Turn = 5.
  0123456
0 ..rr...
1 .......
2 t.....t
3 .......
4 .......
5 .....h.
6 ......h
7 .......
8 ..r....

*** Darwin 7x8 ***
Turn = 0.
  01234567
0 ........
1 ........
2 ......rr
3 .......r
4 t....h..
5 ........
6 ........

Turn = 3.
  01234567
0 ......r.
1 .......r
2 .....r..
3 ........
4 t......h
5 ........
6 ........

*** Darwin 10x7 ***
Turn = 0.
  0123456
0 ....f..
1 .......
2 .r...t.
3 r......
4 .......
5 ...f...
6 .......
7 ....ht.
8 .......
9 .......

Turn = 3.
  0123456
0 ....f..
1 .......
2 ....rt.
3 ...r...
4 .......
5 ...f...
6 .......
7 .....t.
8 .......
9 ....h..

*** Darwin 5x7 ***
Turn = 0.
  0123456
0 .r....t
1 .....t.
2 .......
3 .t.....
4 ...f...

Turn = 4.
  0123456
0 .....tt
1 .....t.
2 .......
3 .t.....
4 ...f...

*** Darwin 7x5 ***
Turn = 0.
  01234
0 ...h.
1 h....
2 ....r
3 .....
4 .....
5 ...hh
6 .....

Turn = 2.
  01234
0 ...h.
1 ..h..
2 .....
3 .....
4 ....r
5 .h...
6 ....h

Turn = 4.
  01234
0 ...h.
1 ....h
2 .....
3 .....
4 .....
5 h...r
6 ....r

*** Darwin 9x10 ***
Turn = 0.
  0123456789
0 ..........
1 ........h.
2 .h.f......
3 ...t..r...
4 ..........
5 ..........
6 ..........
7 .....r....
8 f...r.....

Turn = 4.
  0123456789
0 .h........
1 ..........
2 ...t...r..
3 ...t......
4 ..........
5 ........r.
6 ..........
7 .r........
8 f......r..

*** Darwin 8x10 ***
Turn = 0.
  0123456789
0 ......fr..
1 ..h....rf.
2 ...t......
3 ..........
4 ..........
5 ..........
6 ..h.......
7 ..........

Turn = 4.
  0123456789
0 ..........
1 h..r..r.f.
2 ...t...r..
3 ..........
4 ..........
5 ..........
6 ..........
7 ..h.......

*** Darwin 5x7 ***
Turn = 0.
  0123456
0 .r.....
1 .t...h.
2 .f..tt.
3 .......
4 t...r.h

Turn = 4.
  0123456
0 ....r.h
1 .t...t.
2 .t..tt.
3 .......
4 rr.....

*** Darwin 8x6 ***
Turn = 0.
  012345
0 .r.r..
1 .....t
2 ......
3 ......
4 .h....
5 ...r..
6 .f....
7 ....r.

Turn = 1.
  012345
0 ...r..
1 .r...t
2 ......
3 ......
4 h.....
5 ..r...
6 .f....
7 ....r.

Turn = 2.
  012345
0 ....r.
1 .....t
2 .r....
3 ......
4 h.....
5 .r....
6 .f....
7 .....r

Turn = 3.
  012345
0 .....r
1 .....t
2 ......
3 .r....
4 h.....
5 r.....
6 .f....
7 .....r

Turn = 4.
  012345
0 .....r
1 .....t
2 ......
3 ......
4 hr....
5 r.....
6 .f....
7 .....r

Turn = 5.
  012345
0 .....r
1 .....r
2 ......
3 ......
4 r.....
5 rr....
6 .f....
7 ....r.

*** Darwin 6x6 ***
Turn = 0.
  012345
0 ......
1 ...r..
2 t...t.
3 ......
4 ......
5 tf...h

Turn = 2.
  012345
0 ...r..
1 ......
2 t...t.
3 ......
4 ......
5 tf...h

Turn = 4.
  012345
0 .....r
1 ......
2 t...t.
3 ......
4 ......
5 tt...h

*** Darwin 7x6 ***
Turn = 0.
  012345
0 h.....
1 r....h
2 ....r.
3 ......
4 ......
5 t.f..r
6 r....t

Turn = 4.
  012345
0 r.....
1 .rr...
2 r.....
3 ......
4 ......
5 t.f..r
6 t..r..

*** Darwin 5x6 ***
Turn = 0.
  012345
0 ....f.
1 rh...h
2 ....f.
3 ......
4 .....h

Turn = 1.
  012345
0 ....fh
1 r.h...
2 ....f.
3 ......
4 .....h

Turn = 2.
  012345
0 r...fh
1 ...h..
2 ....f.
3 ......
4 .....h

Turn = 3.
  012345
0 r...fh
1 ....h.
2 ....f.
3 ......
4 .....h

Turn = 4.
  012345
0 r...fh
1 .....h
2 ....f.
3 ......
4 .....h

Turn = 5.
  012345
0 r...fh
1 .....h
2 ....f.
3 ......
4 .....h

*** Darwin 5x5 ***
Turn = 0.
  01234
0 .....
1 r..t.
2 ...r.
3 .....
4 f..h.

Turn = 2.
  01234
0 r....
1 ...t.
2 .....
3 .....
4 f..rh

Turn = 4.
  01234
0 ..r..
1 ...t.
2 .....
3 .....
4 f..rr

*** Darwin 7x8 ***
Turn = 0.
  01234567
0 ........
1 ........
2 .ft.....
3 ........
4 .h...f.f
5 ...f....
6 .f......

Turn = 2.
  01234567
0 ........
1 ........
2 .ft.....
3 ........
4 .....f.f
5 .h.f....
6 .f......

Turn = 4.
  01234567
0 ........
1 ........
2 .tt.....
3 ........
4 .....f.f
5 .h.f....
6 .f......
