*** Darwin 6x9 ***
Turn = 0.
  012345678
0 .f.......
1 ...h.....
2 r........
3 .........
4 ...t.....
5 .f.......

Turn = 4.
  012345678
0 .f.......
1 h........
2 .........
3 .........
4 ...t.....
5 rf.......

Turn = 8.
  012345678
0 .f.......
1 h........
2 .........
3 .........
4 r..t.....
5 .f.......

Turn = 12.
  012345678
0 .f.......
1 r........
2 r........
3 .........
4 ...t.....
5 .f.......

*** Darwin 10x6 ***
Turn = 0.
  012345
0 ......
1 .....t
2 .f....
3 t.fr..
4 .....r
5 ......
6 h.....
7 .....h
8 ......
9 .h....

Turn = 38.
  012345
0 r.rr..
1 .....r
2 ......
3 ......
4 ......
5 ....r.
6 r....r
7 r.....
8 ......
9 ...r..

Turn = 76.
  012345
0 r.r...
1 r.....
2 .r....
3 ......
4 ...r..
5 .....r
6 ......
7 ....r.
8 ...r..
9 ..r...

*** Darwin 6x11 ***
Turn = 0.
  01234567890
0 ........r..
1 .t.........
2 ......h....
3 .........tf
4 f.tf...h...
5 h....t....t

Turn = 10.
  01234567890
0 ...........
1 .t....r....
2 ..........t
3 .........tt
4 f.tt.....t.
5 h....t....t

Turn = 20.
  01234567890
0 r..........
1 ...........
2 ..........t
3 .........tt
4 f.tt.....t.
5 hr...t....t

Turn = 30.
  01234567890
0 ..........r
1 ...........
2 ..........t
3 .........tr
4 f.tt.....tr
5 h.......rt.

*** Darwin 9x5 ***
Turn = 0.
  01234
0 ..t..
1 fh...
2 .....
3 .r.t.
4 t....
5 .f...
6 .....
7 h....
8 .f.f.

Turn = 43.
  01234
0 ..rrr
1 .....
2 r....
3 ....r
4 .r...
5 .....
6 .....
7 ....r
8 ..rrr

*** Darwin 6x8 ***
Turn = 0.
  01234567
0 ....tf..
1 ..f.....
2 .f..r...
3 .h...rt.
4 ....f...
5 ........

Turn = 9.
  01234567
0 ....ttt.
1 r.f.....
2 .f......
3 .......h
4 .......r
5 ......r.

Turn = 18.
  01234567
0 ....tttr
1 ..f.....
2 .f......
3 ........
4 r...r...
5 ...r....

Turn = 27.
  01234567
0 rr..tttt
1 ..f.....
2 ....r...
3 ........
4 ........
5 .....r..

Turn = 36.
  01234567
0 ....r.tt
1 ..fr.r..
2 ........
3 ........
4 .....r..
5 r......r

Turn = 45.
  01234567
0 ..r...tt
1 rrr.....
2 .......r
3 ........
4 ........
5 .....r.r

Turn = 54.
  01234567
0 ...rr.r.
1 ...rr...
2 ..r.....
3 ........
4 .....r..
5 .r.r....

Turn = 63.
  01234567
0 ......r.
1 rr...r..
2 ..r.....
3 ........
4 ..r.....
5 rrr.....

Turn = 72.
  01234567
0 .r......
1 ..r.....
2 r.......
3 ......r.
4 rr......
5 r.....rr

Turn = 81.
  01234567
0 r.r..rr.
1 .......r
2 ........
3 ........
4 .......r
5 rr.....r

Turn = 90.
  01234567
0 rr..r...
1 ........
2 .......r
3 .....r.r
4 .....r..
5 ...r.r..

*** Darwin 8x8 ***
Turn = 0.
  01234567
0 ...h...h
1 ........
2 .....t..
3 f.......
4 ...th...
5 .......h
6 ..h.h...
7 ..t.tf..

Turn = 34.
  01234567
0 ...h...h
1 ........
2 .....t..
3 f.......
4 ...t....
5 ....t..h
6 ...tt...
7 ..t.tt..

Turn = 68.
  01234567
0 ...h...h
1 ........
2 .....t..
3 f.......
4 ...t....
5 ....t..h
6 ...tt...
7 ..t.tt..

*** Darwin 7x5 ***
Turn = 0.
  01234
0 tf..h
1 .....
2 .tt..
3 .....
4 .r.rr
5 f....
6 ..t.f

Turn = 39.
  01234
0 ..r..
1 ..r..
2 rr...
3 rrr..
4 rr...
5 .....
6 ...rr

*** Darwin 10x12 ***
Turn = 0.
  012345678901
0 ..f.....t...
1 .........r..
2 ..........h.
3 ....t.......
4 ............
5 .r.....r....
6 ...h........
7 ......t...f.
8 ........h...
9 ............

Turn = 10.
  012345678901
0 .rr....tt.h.
1 r...........
2 ............
3 ....t.......
4 ............
5 ............
6 ...........h
7 ......t...f.
8 h...........
9 ............

Turn = 20.
  012345678901
0 ........r.h.
1 ............
2 ......r.....
3 ....t...r...
4 ............
5 ............
6 ...........h
7 r.....t...f.
8 h...........
9 .r..........

Turn = 30.
  012345678901
0 .....r......
1 ............
2 ............
3 ....t.......
4 ...........r
5 ............
6 ......t....h
7 .......rrrf.
8 ............
9 .....r..r...

Turn = 40.
  012345678901
0 r.....r.r...
1 ........r...
2 ............
3 ....t.......
4 ............
5 ....r.......
6 ......t.r...
7 ........r...
8 ............
9 .......r..r.

*** Darwin 7x7 ***
Turn = 0.
  0123456
0 ...r...
1 .hh....
2 .tf....
3 ....h..
4 .....h.
5 .......
6 .......

Turn = 85.
  0123456
0 ..h....
1 ......h
2 .ttt...
3 .......
4 h......
5 .......
6 ....h..

*** Darwin 12x5 ***
Turn = 0.
  01234
0 .tr..
1 ..r..
2 .....
3 .....
4 .f..t
5 .....
6 f....
7 .....
8 .....
9 .....
0 .....
1 .....

Turn = 18.
  01234
0 .tt..
1 .....
2 .....
3 ....t
4 .f..t
5 .....
6 f....
7 .....
8 .....
9 .....
0 .....
1 .....

*** Darwin 8x8 ***
Turn = 0.
  01234567
0 ...f....
1 ........
2 .t..f...
3 ........
4 t.......
5 h.......
6 t.t.....
7 .h......

Turn = 1.
  01234567
0 ...f....
1 ........
2 .t..f...
3 ........
4 t.......
5 t.......
6 tht.....
7 ........

Turn = 2.
  01234567
0 ...f....
1 ........
2 .t..f...
3 ........
4 t.......
5 th......
6 t.t.....
7 ........

*** Darwin 8x8 ***
Turn = 0.
  01234567
0 .....h..
1 .f....fh
2 ...t...h
3 ......t.
4 .....t..
5 .....t..
6 ........
7 ...r...t

Turn = 63.
  01234567
0 ........
1 .f....tt
2 ...t...t
3 ......tt
4 .....t..
5 .....t..
6 .......t
7 .......t

*** Darwin 10x7 ***
Turn = 0.
  0123456
0 .......
1 .......
2 .......
3 .f.....
4 ......h
5 .......
6 ....t..
7 t...f..
8 ..r....
9 .......

Turn = 41.
  0123456
0 .......
1 .......
2 .......
3 .f.....
4 h......
5 .......
6 ....t..
7 t...t..
8 ....t..
9 .......

Turn = 82.
  0123456
0 .......
1 .......
2 .......
3 .f.....
4 h......
5 .......
6 ....t..
7 t...t..
8 ....t..
9 .......

*** Darwin 11x5 ***
Turn = 0.
  01234
0 .....
1 .t...
2 .....
3 .....
4 h....
5 ...t.
6 hr..f
7 r....
8 .....
9 .....
0 r....

Turn = 8.
  01234
0 .....
1 .t...
2 .....
3 .....
4 r....
5 r..t.
6 ...t.
7 .....
8 ...r.
9 ....r
0 ...r.

Turn = 16.
  01234
0 r....
1 .t...
2 ..r..
3 .....
4 .....
5 ....r
6 r....
7 r....
8 ...r.
9 .....
0 ...r.

Turn = 24.
  01234
0 ..r..
1 .trr.
2 .....
3 .....
4 .....
5 .....
6 .....
7 ....r
8 .....
9 .....
0 rr.r.

Turn = 32.
  01234
0 .....
1 .ttt.
2 .....
3 r....
4 .....
5 .....
6 .....
7 ....r
8 r....
9 .....
0 .rr..

Turn = 40.
  01234
0 .....
1 .tttt
2 .....
3 .r...
4 .....
5 ....r
6 ....r
7 .....
8 .....
9 .....
0 ..r..

Turn = 48.
  01234
0 .....
1 .tttt
2 r....
3 r....
4 r....
5 ....r
6 .....
7 .....
8 .....
9 .....
0 .....

Turn = 56.
  01234
0 ....r
1 .tttr
2 ...tr
3 .....
4 .....
5 .....
6 .....
7 .....
8 .....
9 .....
0 r....

Turn = 64.
  01234
0 .....
1 .tttt
2 ...tt
3 r....
4 .....
5 .....
6 .....
7 .....
8 .....
9 .....
0 ...r.

*** Darwin 5x10 ***
Turn = 0.
  0123456789
0 t.h......t
1 ..........
2 .t.h.....h
3 ..........
4 .r.t......

Turn = 3.
  0123456789
0 t....h...t
1 ..........
2 .t....h...
3 r.........
4 ...t.....h

Turn = 6.
  0123456789
0 t.......ht
1 t.........
2 .t.......h
3 ..........
4 ...t.....h

Turn = 9.
  0123456789
0 t.......tt
1 t.........
2 .t.......h
3 ..........
4 ...t.....h

Turn = 12.
  0123456789
0 t.......tt
1 t.........
2 .t.......h
3 ..........
4 ...t.....h

Turn = 15.
  0123456789
0 t.......tt
1 t.........
2 .t.......h
3 ..........
4 ...t.....h

Turn = 18.
  0123456789
0 t.......tt
1 t.........
2 .t.......h
3 ..........
4 ...t.....h

Turn = 21.
  0123456789
0 t.......tt
1 t.........
2 .t.......h
3 ..........
4 ...t.....h

Turn = 24.
  0123456789
0 t.......tt
1 t.........
2 .t.......h
3 ..........
4 ...t.....h

Turn = 27.
  0123456789
0 t.......tt
1 t.........
2 .t.......h
3 ..........
4 ...t.....h

Turn = 30.
  0123456789
0 t.......tt
1 t.........
2 .t.......h
3 ..........
4 ...t.....h

Turn = 33.
  0123456789
0 t.......tt
1 t.........
2 .t.......h
3 ..........
4 ...t.....h

Turn = 36.
  0123456789
0 t.......tt
1 t.........
2 .t.......h
3 ..........
4 ...t.....h

Turn = 39.
  0123456789
0 t.......tt
1 t.........
2 .t.......h
3 ..........
4 ...t.....h

Turn = 42.
  0123456789
0 t.......tt
1 t.........
2 .t.......h
3 ..........
4 ...t.....h

Turn = 45.
  0123456789
0 t.......tt
1 t.........
2 .t.......h
3 ..........
4 ...t.....h

Turn = 48.
  0123456789
0 t.......tt
1 t.........
2 .t.......h
3 ..........
4 ...t.....h

Turn = 51.
  0123456789
0 t.......tt
1 t.........
2 .t.......h
3 ..........
4 ...t.....h

*** Darwin 8x10 ***
Turn = 0.
  0123456789
0 ..f.......
1 ..........
2 ..........
3 .....ft...
4 .r........
5 r.........
6 t.......t.
7 ..........

Turn = 3.
  0123456789
0 ..f.......
1 ..........
2 r.........
3 .....tt...
4 ..........
5 ..........
6 tt......t.
7 ..........

Turn = 6.
  0123456789
0 r.f.......
1 ..........
2 ..........
3 .....tt...
4 ..........
5 ..........
6 tt......t.
7 ..........

Turn = 9.
  0123456789
0 ..r.r.....
1 ..........
2 ..........
3 .....tt...
4 ..........
5 ..........
6 tt......t.
7 ..........

Turn = 12.
  0123456789
0 .....r.r..
1 ..........
2 ..........
3 .....tt...
4 ..........
5 ..........
6 tt......t.
7 ..........

Turn = 15.
  0123456789
0 ........rr
1 ..........
2 ..........
3 .....tt...
4 ..........
5 ..........
6 tt......t.
7 ..........

Turn = 18.
  0123456789
0 ..........
1 .........r
2 ........r.
3 .....tt...
4 ..........
5 ..........
6 tt......t.
7 ..........

Turn = 21.
  0123456789
0 ..........
1 ..........
2 ..........
3 .....tt...
4 .........r
5 ........r.
6 tt......t.
7 ..........

Turn = 24.
  0123456789
0 ..........
1 ..........
2 ..........
3 .....tt...
4 ..........
5 ........rr
6 tt........
7 .........r

Turn = 27.
  0123456789
0 ..........
1 ..........
2 ........r.
3 .....tt...
4 ..........
5 ..........
6 tt........
7 .......r.r

Turn = 30.
  0123456789
0 ........r.
1 ..........
2 ..........
3 .....tt...
4 ..........
5 ..........
6 tt........
7 ....r....r

Turn = 33.
  0123456789
0 .....r....
1 ..........
2 ..........
3 .....tt...
4 ..........
5 ..........
6 tt........
7 .r....r...

*** Darwin 5x7 ***
Turn = 0.
  0123456
0 rrf....
1 ...r...
2 ...ht..
3 t.....t
4 .......

Turn = 66.
  0123456
0 .....r.
1 ......r
2 .....rr
3 rr....r
4 ..r....

*** Darwin 7x5 ***
Turn = 0.
  01234
0 ...f.
1 .h..f
2 .....
3 ..r.t
4 r..h.
5 .....
6 rr..f

Turn = 47.
  01234
0 .h.f.
1 .....
2 .....
3 ...tt
4 ...tt
5 ..tt.
6 ...tt

*** Darwin 6x10 ***
Turn = 0.
  0123456789
0 ..........
1 ..........
2 hrth......
3 ft........
4 ..........
5 .....hr...

Turn = 1.
  0123456789
0 ..........
1 ..........
2 hrt.h.....
3 fr........
4 ..........
5 ....hr....

Turn = 2.
  0123456789
0 ..........
1 ..........
2 hrt..h....
3 f.r.......
4 ..........
5 ...hr.....

*** Darwin 11x12 ***
Turn = 0.
  012345678901
0 f..........t
1 ............
2 ............
3 ..t.........
4 ....h...h.f.
5 ......h.....
6 ....t......h
7 .....r...f..
8 ......r.....
9 .tf.........
0 ............

Turn = 33.
  012345678901
0 .r..........
1 r.....r.....
2 ............
3 ..t.......r.
4 ..........fr
5 ....tt......
6 ....t.......
7 .........f..
8 .......r....
9 .tt.........
0 ............
