*** Darwin 3x8 ***
Turn = 0.
  01234567
0 ...t....
1 ...t.h..
2 .t.....f

*** Darwin 7x8 ***
Turn = 0.
  01234567
0 ...r....
1 .......h
2 f......f
3 ........
4 ......f.
5 ......rf
6 ........

Turn = 19.
  01234567
0 ....rr..
1 .......r
2 .......r
3 ......r.
4 ......f.
5 .......f
6 ........

Turn = 38.
  01234567
0 r.r..r..
1 ..r.....
2 r.......
3 r.......
4 ........
5 ........
6 .....r..

Turn = 57.
  01234567
0 ........
1 rr......
2 ........
3 rr...rr.
4 .......r
5 ........
6 ........

*** Darwin 8x10 ***
Turn = 0.
  0123456789
0 ...f...r..
1 ..........
2 ........h.
3 ..........
4 ..........
5 .........f
6 ..........
7 ..........

Turn = 25.
  0123456789
0 ...f....hr
1 r.........
2 ..........
3 ..........
4 ..........
5 ..........
6 ..........
7 ..........

*** Darwin 12x3 ***
Turn = 0.
  012
0 ...
1 .t.
2 .f.
3 ...
4 .r.
5 .h.
6 ...
7 .hh
8 ...
9 f..
0 ...
1 ...

*** Darwin 3x5 ***
Turn = 0.
  01234
0 t....
1 .....
2 hrff.

Turn = 22.
  01234
0 rr...
1 .....
2 .r.rr

Turn = 44.
  01234
0 ...rr
1 r....
2 r...r

Turn = 66.
  01234
0 .....
1 ..r.r
2 r.rr.

Turn = 88.
  01234
0 r...r
1 .....
2 rr.r.

*** Darwin 4x13 ***
Turn = 0.
  0123456789012
0 ............t
1 ........t....
2 .............
3 ............t

Turn = 34.
  0123456789012
0 ............t
1 ........t....
2 .............
3 ............t

*** Darwin 4x5 ***
Turn = 0.
  01234
0 ...r.
1 t....
2 .r...
3 ..r..

Turn = 41.
  01234
0 t....
1 t....
2 t....
3 t....

*** Darwin 8x10 ***
Turn = 0.
  0123456789
0 ..........
1 ....f.....
2 ....t..t.f
3 ..........
4 ..h.......
5 ..........
6 ..........
7 ..........

Turn = 40.
  0123456789
0 ..........
1 ....t.....
2 ....t..t.f
3 ..........
4 .........h
5 ..........
6 ..........
7 ..........

Turn = 80.
  0123456789
0 ..........
1 ....t.....
2 ....t..t.f
3 ..........
4 .........h
5 ..........
6 ..........
7 ..........

*** Darwin 3x13 ***
Turn = 0.
  0123456789012
0 ....fh.......
1 .....h.....h.
2 ....t........

*** Darwin 13x8 ***
Turn = 0.
  01234567
0 ........
1 ........
2 ........
3 ........
4 .t.h....
5 ...r....
6 ........
7 r.......
8 ........
9 ........
0 ........
1 ...f....
2 ........

Turn = 34.
  01234567
0 ........
1 ........
2 ........
3 r.......
4 ........
5 ........
6 ........
7 ........
8 ........
9 ........
0 .......r
1 ...f....
2 ......rr

Turn = 68.
  01234567
0 .......r
1 ........
2 .......r
3 ........
4 ........
5 ........
6 ........
7 ........
8 ........
9 ........
0 ........
1 ...f....
2 r.r.....

*** Darwin 4x12 ***
Turn = 0.
  012345678901
0 f...........
1 ........f...
2 .........t..
3 ............

Turn = 68.
  012345678901
0 f...........
1 ........f...
2 .........t..
3 ............

*** Darwin 3x11 ***
Turn = 0.
  01234567890
0 ...........
1 .....t.....
2 ..f.f.....t

*** Darwin 15x10 ***
Turn = 0.
  0123456789
0 ..........
1 ..........
2 ....f....h
3 ....f.....
4 ..........
5 ..........
6 ...r......
7 ..........
8 ..........
9 ..........
0 ..........
1 ........r.
2 ..........
3 ..........
4 ..........

Turn = 50.
  0123456789
0 ..........
1 ..........
2 ....f.....
3 ....f.....
4 ..........
5 .........r
6 ..........
7 ..........
8 ..........
9 ..........
0 ..........
1 ..........
2 ..........
3 ..........
4 ....r.r...

*** Darwin 10x3 ***
Turn = 0.
  012
0 .f.
1 ...
2 .t.
3 .h.
4 ..r
5 ...
6 ..t
7 ...
8 rh.
9 ...

Turn = 47.
  012
0 rr.
1 ...
2 ...
3 ...
4 ...
5 .tt
6 tt.
7 t..
8 ...
9 ...

*** Darwin 12x11 ***
Turn = 0.
  01234567890
0 ..........h
1 ...........
2 ...........
3 ...........
4 ...........
5 ...........
6 .......h...
7 ...........
8 ...........
9 ...........
0 ......r..h.
1 ...........

*** Darwin 7x15 ***
Turn = 0.
  012345678901234
0 ...............
1 ............f..
2 .t.............
3 ............h..
4 ...r...........
5 .......r.......
6 ...............

Turn = 13.
  012345678901234
0 ...............
1 ............f..
2 rt..........h..
3 ...............
4 ...............
5 ...............
6 ...........r...

*** Darwin 5x8 ***
Turn = 0.
  01234567
0 ..f..f..
1 .......t
2 ..hh....
3 ........
4 ........

Turn = 21.
  01234567
0 ..f..f..
1 .......t
2 ......tt
3 ........
4 ........

*** Darwin 14x14 ***
Turn = 0.
  01234567890123
0 .....f........
1 ..............
2 ....t.........
3 ..............
4 ........f.....
5 ..f...........
6 ..............
7 ..............
8 .....r........
9 ..............
0 ..............
1 ..............
2 ..............
3 ..............

Turn = 53.
  01234567890123
0 ..............
1 ..............
2 ..............
3 ..............
4 r.......f.....
5 ..f...........
6 ..............
7 ..............
8 ..............
9 ..............
0 ..............
1 ........r.....
2 ..............
3 ..........r...

*** Darwin 4x6 ***
Turn = 0.
  012345
0 .ft...
1 .tr...
2 ....t.
3 ......

Turn = 1.
  012345
0 .tt...
1 .tt...
2 ....t.
3 ......

Turn = 2.
  012345
0 .tt...
1 .tt...
2 ....t.
3 ......

Turn = 3.
  012345
0 .tt...
1 .tt...
2 ....t.
3 ......

Turn = 4.
  012345
0 .tt...
1 .tt...
2 ....t.
3 ......

Turn = 5.
  012345
0 .tt...
1 .tt...
2 ....t.
3 ......

Turn = 6.
  012345
0 .tt...
1 .tt...
2 ....t.
3 ......

Turn = 7.
  012345
0 .tt...
1 .tt...
2 ....t.
3 ......

Turn = 8.
  012345
0 .tt...
1 .tt...
2 ....t.
3 ......

Turn = 9.
  012345
0 .tt...
1 .tt...
2 ....t.
3 ......

Turn = 10.
  012345
0 .tt...
1 .tt...
2 ....t.
3 ......

*** Darwin 15x13 ***
Turn = 0.
  0123456789012
0 .............
1 .............
2 .............
3 .............
4 .............
5 ..........r..
6 .............
7 .............
8 .............
9 ...........r.
0 .............
1 .............
2 .......r.....
3 .............
4 .............

Turn = 21.
  0123456789012
0 ...........r.
1 .............
2 .............
3 .............
4 .............
5 .............
6 .............
7 .............
8 .............
9 .............
0 .............
1 ............r
2 .............
3 .............
4 r............

*** Darwin 6x13 ***
Turn = 0.
  0123456789012
0 .............
1 ........f....
2 .....t.r.....
3 .......t.....
4 ............h
5 .............

*** Darwin 6x10 ***
Turn = 0.
  0123456789
0 ........r.
1 .....r....
2 ..........
3 ..........
4 .....h....
5 ..........

*** Darwin 11x7 ***
Turn = 0.
  0123456
0 .......
1 .......
2 .......
3 .......
4 t......
5 .......
6 ..h....
7 .......
8 t......
9 .....t.
0 .......

Turn = 40.
  0123456
0 .......
1 .......
2 .......
3 .......
4 t......
5 .......
6 .......
7 .......
8 t......
9 .....t.
0 ..h....

*** Darwin 15x4 ***
Turn = 0.
  0123
0 ....
1 ....
2 ....
3 ....
4 t.h.
5 ....
6 ....
7 ....
8 ...f
9 ....
0 ....
1 .h..
2 r...
3 ....
4 ....

*** Darwin 8x5 ***
Turn = 0.
  01234
0 .....
1 .....
2 t....
3 .....
4 .....
5 ..t..
6 .....
7 hh...

Turn = 21.
  01234
0 .....
1 .....
2 t....
3 t....
4 .....
5 ..t..
6 .....
7 ....h

Turn = 42.
  01234
0 .....
1 .....
2 t....
3 t....
4 .....
5 ..t..
6 .....
7 ....h

Turn = 63.
  01234
0 .....
1 .....
2 t....
3 t....
4 .....
5 ..t..
6 .....
7 ....h

Turn = 84.
  01234
0 .....
1 .....
2 t....
3 t....
4 .....
5 ..t..
6 .....
7 ....h
